{
  "title": "Congress Activities",
  "featured_title": "Next Event",
  "featured": 0,
  "activities": [
     {
      "id": 0,
      "event": "ASH (American Society of Hematology)",
      "location": "Virtual",
      "dates": "December 5-8, 2020",
      "start_date": "2020-12-05T23:59:59-04:00",
      "end_date": "2020-12-08T23:59:59-04:00",
      "specialty": null,
      "society": null,
      "attendance": null,
      "attendees": null,
      "sidebar": [
        {
          "title": "Meeting Website",
          "title_past": "Website",
          "type": "link",
          "tagline": "<p class='block-text line-one'>More information can be</p><p class='block-text line-two'>found at https://www.hematology.org/meetings/annual-meeting</p>",
          "document": null,
          "disabled": false,
          "href": "https://www.hematology.org/meetings/annual-meeting",
          "href_past": "https://www.hematology.org/meetings/annual-meeting",
          "button": "Congress Website"
        }
      ],
      "image": true,
      "image_id": "08",
      "background_id": "01",
      "society_image": ""
     },
     {
      "id": 1,
      "event": "EHA (European Hematology Association)",
      "location": "Vienna, Austria",
      "dates": "June 10 - 13, 2021",
      "start_date": "2021-06-10T23:59:59-04:00",
      "end_date": "2021-06-13T23:59:59-04:00",
      "specialty": null,
      "society": null,
      "attendance": null,
      "attendees": null,
      "sidebar": [
        {
          "title": "Meeting Website",
          "title_past": "Website",
          "type": "link",
          "tagline": "<p class='block-text line-one'>More information can be</p><p class='block-text line-two'>found at https://ehaweb.org/congress/future-congresses/</p>",
          "document": null,
          "disabled": false,
          "href": "https://ehaweb.org/congress/future-congresses/",
          "href_past": "https://ehaweb.org/congress/future-congresses/",
          "button": "Congress Website"
        }
      ],
      "image": true,
      "image_id": "12",
      "background_id": "01",
      "society_image": ""
     }
    ],
  "groups_past": [
    {
      "id": 0,
      "year": "2020",
      "start_date": "2020-01-01T23:59:59-04:00",
      "end_date": null
    }
  ]
}