[
    {
        "id": 1,
        "filename": "DEC-C_Lexicon_03Aug2020",
        "sourcefile": "DEC-C_Lexicon_03Aug2020.pptx",
        "DisplayName": null,
        "Title": "Lexicon",
        "publication_date": "2020-08-03T23:59:59-04:00",
        "createdAt": null,
        "updatedAt": null
    },
    {
        "id": 2,
        "filename": "DEC-C_Scientific_Narrative_07Aug2020",
        "sourcefile": "DEC-C_Scientific_Narrative_07Aug2020.pptx",
        "DisplayName": null,
        "Title": "Scientific Narrative",
        "publication_date": "2020-08-07T23:59:59-04:00",
        "createdAt": null,
        "updatedAt": null
    },
    {
        "id": 3,
        "filename": "Medical_Plan_DEC-C_Q2_updated_July_20_2020",
        "sourcefile": "Medical_Plan_DEC-C_Q2_updated_July_20_2020.pptx",
        "DisplayName": null,
        "Title": "Medical Plan",
        "publication_date": "2020-07-20T23:59:59-04:00",
        "type": "internal",
        "createdAt": null,
        "updatedAt": null
    },
    {
        "id": 4,
        "filename": "MDS_Disease_Awareness_Slide_Deck",
        "sourcefile": "MDS_Disease_Awareness_Slide_Deck.pptx",
        "DisplayName": null,
        "Title": "MDS Disease Awareness Slide Deck",
        "publication_date": "2020-07-20T23:59:59-04:00",
        "type": "proactive",
        "createdAt": null,
        "updatedAt": null
    },
    {
        "id": 5,
        "filename": "DEC-C_Clinical_Results_Slide_Deck",
        "sourcefile": "DEC-C_Clinical_Results_Slide_Deck.pptx",
        "DisplayName": null,
        "Title": "DEC-C Clinical Results Slide Deck",
        "publication_date": "2020-07-20T23:59:59-04:00",
        "type": "reactive",
        "createdAt": null,
        "updatedAt": null
    },
    {
        "id": 6,
        "filename": "DEC-C_PI_deck_Final_03August2020",
        "sourcefile": "DEC-C_PI_deck_Final_03August2020.pptx",
        "DisplayName": null,
        "Title": "DEC-C Label Slide Deck",
        "publication_date": "2020-07-20T23:59:59-04:00",
        "type": "proactive",
        "createdAt": null,
        "updatedAt": null
    },
    {
        "id": 7,
        "filename": "MDS_Payer_Slide_Deck",
        "sourcefile": "MDS_Payer_Slide_Deck.pptx",
        "DisplayName": null,
        "Title": "MDS Payer Slide Deck",
        "publication_date": "2020-07-20T23:59:59-04:00",
        "type": "reactive",
        "createdAt": null,
        "updatedAt": null
    },
    {
        "id": 8,
        "filename": "HSCT_in_AML_Overview_FINAL_09Sep2020",
        "sourcefile": "HSCT_in_AML_Overview_FINAL_09Sep2020.pptx",
        "DisplayName": null,
        "Title": "Overview of Hematopoietic Stem Cell Transplant (HSCT) in AML",
        "publication_date": "2020-07-20T23:59:59-04:00",
        "type": "internal",
        "createdAt": null,
        "updatedAt": null
    },
    {
        "id": 9,
        "filename": "CC-486_Training_Final_14Oct2020",
        "sourcefile": "CC-486_Training_Final_14Oct2020.pptx",
        "DisplayName": null,
        "Title": "CC-486 Training Slides",
        "type": null,
        "createdAt": null,
        "updatedAt": null
    },
    {
        "id": 10,
        "filename": "Manuscript_Summary_C-DEC_Ph2_Result_Blood_20200420",
        "sourcefile": null,
        "DisplayName": null,
        "Title": "Manuscript summary: DEC-C phase 2, Blood 2020",
        "publication_date": "2020-04-20T23:59:59-04:00",
        "createdAt": null,
        "updatedAt": null
    }, {
        "id": 11,
        "filename": "Manuscript_Summary_FF-10501-01_Ph1_and_2a_Dose_Escalation_Leukemia&Lymphoma_20200409",
        "sourcefile": null,
        "DisplayName": null,
        "Title": "Manuscript summary: FF-10501-01 phase 1-2a dose escalation, Leuk Lymphoma 2020",
        "publication_date": "2020-04-09T23:59:59-04:00",        
        "createdAt": null,
        "updatedAt": null
    }, {
        "id": 12,
        "filename": "HMA_Competitor_Guide_FINAL_23Oct2020",
        "sourcefile": null,
        "DisplayName": null,
        "Title": "HMA Competitor Guide",
        "publication_date": "2020-10-23T23:59:59-04:00",        
        "createdAt": null,
        "updatedAt": null
    }, {
        "id": 13,
        "filename": "Astex_Press_Release_MD_Anderson_Collaboration_Final_20200904",
        "sourcefile": null,
        "DisplayName": null,
        "Title": "Astex and MD Anderson Announce Strategic Collaboration",
        "publication_date": "2020-10-23T23:59:59-04:00",        
        "createdAt": null,
        "updatedAt": null
    }, {
        "id": 14,
        "filename": "NCCNORP_Taiho_decitabine_cedazuridine",
        "sourcefile": null,
        "DisplayName": null,
        "Title": "NCCN Research Program for DEC-C in Hematologic Malignancies",
        "publication_date": "2020-10-23T23:59:59-04:00",        
        "createdAt": null,
        "updatedAt": null
    }, {
        "id": 15,
        "filename": "Venetoclax_Overview_FINAL_01Dec2020",
        "sourcefile": "Venetoclax_Overview_FINAL_01Dec2020.pptx",
        "DisplayName": null,
        "Title": "Venetoclax Overview",
        "publication_date": "2020-11-17T23:59:59-04:00",        
        "createdAt": null,
        "updatedAt": null
    }, {
        "id": 16,
        "filename": "MDS_Background_Patient_InfoGraphic",
        "sourcefile": null,
        "DisplayName": null,
        "Title": "MDS Background Patient InfoGraphic",
        "type": "proactive",
        "publication_date": "2020-11-11T23:59:59-04:00",        
        "createdAt": null,
        "updatedAt": null
    }    
]