[{
	"favorite": [],
	"id": 1,
	"uid": "1",
	"filename": "001_garciamanero_2016",
	"annotated": false,
	"DisplayName": "Garcia-Manero ASH 2016 oral",
	"ShortCitation": "Garcia-Manero G, et al. ASH 2016 Oral Presentation Abstract 114.",
	"Title": "__PLACEHOLDER__",
	"active": true,
	"cached": false,
	"tags": [],
	"subtags": [],
	"createdAt": null,
	"updatedAt": null
}, {
	"favorite": [],
	"id": 2,
	"uid": "2",
	"filename": "002_garciamanero_2019",
	"annotated": false,
	"DisplayName": "Garcia-Manero ASH 2019 oral",
	"ShortCitation": "Garcia-Manero G, et al. ASH 2019 Oral Presentation Abstract 846.",
	"Title": "__PLACEHOLDER__",
	"active": true,
	"cached": false,
	"tags": [],
	"subtags": [],
	"createdAt": null,
	"updatedAt": null
}, {
	"favorite": [],
	"id": 3,
	"uid": "3",
	"filename": "003_aamds_2020",
	"annotated": false,
	"DisplayName": "AAMDS International Foundation 2020",
	"ShortCitation": "AAMDS International Foundation webpage: MDS Types. https://www.aamds.org/diseases/mds/types. Accessed 15 July 2020.",
	"Title": "__PLACEHOLDER__",
	"active": true,
	"cached": false,
	"tags": [],
	"subtags": [],
	"createdAt": null,
	"updatedAt": null
}, {
	"favorite": [],
	"id": 4,
	"uid": "4",
	"filename": "004_acs_2020",
	"annotated": false,
	"DisplayName": "ACS AML signs 2020",
	"ShortCitation": "American Cancer Society webpage: Signs and Symptoms of AML. https://www.cancer.org/cancer/acute-myeloid-leukemia/detection-diagnosis-staging/signs-symptoms. Revised 21 August 2018.",
	"Title": "__PLACEHOLDER__",
	"active": true,
	"cached": false,
	"tags": [],
	"subtags": [],
	"createdAt": null,
	"updatedAt": null
}, {
	"favorite": [],
	"id": 5,
	"uid": "5",
	"filename": "005_acs_2020",
	"annotated": false,
	"DisplayName": "ACS If You Have MDS 2020",
	"ShortCitation": "American Cancer Society webpage: If You Have MDS. https://www.cancer.org/cancer/myelodysplastic-syndrome/if-you-have-myelodysplastic-syndrome.html. Revised 6 February 2018.",
	"Title": "__PLACEHOLDER__",
	"active": true,
	"cached": false,
	"tags": [],
	"subtags": [],
	"createdAt": null,
	"updatedAt": null
}, {
	"favorite": [],
	"id": 6,
	"uid": "6",
	"filename": "006_acs_2020",
	"annotated": false,
	"DisplayName": "ACS Key Stats for MDS 2020",
	"ShortCitation": "American Cancer Society webpage: Key Statistics for MDS. https://www.cancer.org/cancer/myelodysplastic-syndrome/about/key-statistics.html. Revised 22 January 2018.",
	"Title": "__PLACEHOLDER__",
	"active": true,
	"cached": false,
	"tags": [],
	"subtags": [],
	"createdAt": null,
	"updatedAt": null
}, {
	"favorite": [],
	"id": 7,
	"uid": "7",
	"filename": "007_acs_2020",
	"annotated": false,
	"DisplayName": "ACS MDS Prognosis 2020",
	"ShortCitation": "American Cancer Society webpage: Survival Statistics for MDS. https://www.cancer.org/cancer/myelodysplastic-syndrome/detection-diagnosis-staging/survival.html.Revised 22 January 2018.",
	"Title": "__PLACEHOLDER__",
	"active": true,
	"cached": false,
	"tags": [],
	"subtags": [],
	"createdAt": null,
	"updatedAt": null
}, {
	"favorite": [],
	"id": 8,
	"uid": "8",
	"filename": "008_ades_2014",
	"annotated": false,
	"DisplayName": "Ades 2014",
	"ShortCitation": "Adès L et al. Lancet 2014;383:2239-52.",
	"Title": "__PLACEHOLDER__",
	"active": true,
	"cached": false,
	"tags": [],
	"subtags": [],
	"createdAt": null,
	"updatedAt": null
}, {
	"favorite": [],
	"id": 9,
	"uid": "9",
	"filename": "009_arber_2016",
	"annotated": false,
	"DisplayName": "Arber 2016",
	"ShortCitation": "Arber D et al. Blood 2016;127:2391-2405.",
	"Title": "__PLACEHOLDER__",
	"active": true,
	"cached": false,
	"tags": [],
	"subtags": [],
	"createdAt": null,
	"updatedAt": null
}, {
	"favorite": [],
	"id": 10,
	"uid": "10",
	"filename": "010_avgerinou_2017",
	"annotated": false,
	"DisplayName": "Avgerinou 2017",
	"ShortCitation": "Avgerinou C et al. Hematology. 2017;22:419-429.",
	"Title": "__PLACEHOLDER__",
	"active": true,
	"cached": false,
	"tags": [],
	"subtags": [],
	"createdAt": null,
	"updatedAt": null
}, {
	"favorite": [],
	"id": 11,
	"uid": "11",
	"filename": "011_bannon_2016",
	"annotated": false,
	"DisplayName": " Bannon 2016",
	"ShortCitation": "Bannon S, DiNardo C. Int J Mol Sci. 2016;17:838.",
	"Title": "__PLACEHOLDER__",
	"active": true,
	"cached": false,
	"tags": [],
	"subtags": [],
	"createdAt": null,
	"updatedAt": null
}, {
	"favorite": [],
	"id": 12,
	"uid": "12",
	"filename": "012_cancer.net_2020",
	"annotated": false,
	"DisplayName": "Cancer.net AML stats 2020",
	"ShortCitation": "Cancer.Net webpage: AML Statistics. https://www.cancer.net/cancer-types/leukemia-acute-myeloid-aml/statistics. Approved January 2020.",
	"Title": "__PLACEHOLDER__",
	"active": true,
	"cached": false,
	"tags": [],
	"subtags": [],
	"createdAt": null,
	"updatedAt": null
}, {
	"favorite": [],
	"id": 13,
	"uid": "13",
	"filename": "013_cancer.net_2020",
	"annotated": false,
	"DisplayName": "Cancer.net MDS 2020",
	"ShortCitation": "Cancer.net webpage: MDS Introduction. https://www.cancer.net/cancer-types/myelodysplastic-syndromes-mds/view-all. Approved December 2017.",
	"Title": "__PLACEHOLDER__",
	"active": true,
	"cached": false,
	"tags": [],
	"subtags": [],
	"createdAt": null,
	"updatedAt": null
}, {
	"favorite": [],
	"id": 14,
	"uid": "14",
	"filename": "014_chen_2019",
	"annotated": false,
	"DisplayName": "Chen  2019",
	"ShortCitation": "Chen J et al. Nat Med. 2019;25:103-110.",
	"Title": "__PLACEHOLDER__",
	"active": true,
	"cached": false,
	"tags": [],
	"subtags": [],
	"createdAt": null,
	"updatedAt": null
}, {
	"favorite": [],
	"id": 15,
	"uid": "15",
	"filename": "015_dacogen_2013",
	"annotated": false,
	"DisplayName": "Dacogen SmPC 2013",
	"ShortCitation": "Dacogen Summary of Product Characteristics. Janssen Pharmaceuticals, Inc. 2013.",
	"Title": "__PLACEHOLDER__",
	"active": true,
	"cached": false,
	"tags": [],
	"subtags": [],
	"createdAt": null,
	"updatedAt": null
}, {
	"favorite": [],
	"id": 16,
	"uid": "16",
	"filename": "016_dacogen_2020",
	"annotated": false,
	"DisplayName": "Dacogen PI 2020",
	"ShortCitation": "Dacogen Prescribing Information. Astex Pharmaceuticals, Inc. February 2020.",
	"Title": "__PLACEHOLDER__",
	"active": true,
	"cached": false,
	"tags": [],
	"subtags": [],
	"createdAt": null,
	"updatedAt": null
}, {
	"favorite": [],
	"id": 17,
	"uid": "17",
	"filename": "017_dellaporta_2015",
	"annotated": false,
	"DisplayName": "Della Porta 2015",
	"ShortCitation": "Della Porta MG et al. Leukemia. 2015;29:1502-1513.",
	"Title": "__PLACEHOLDER__",
	"active": true,
	"cached": false,
	"tags": [],
	"subtags": [],
	"createdAt": null,
	"updatedAt": null
}, {
	"favorite": [],
	"id": 18,
	"uid": "18",
	"filename": "018_dohner_2017",
	"annotated": false,
	"DisplayName": "Dohner 2017",
	"ShortCitation": "Döhner H et al. Blood. 2017;129:424-447.",
	"Title": "__PLACEHOLDER__",
	"active": true,
	"cached": false,
	"tags": [],
	"subtags": [],
	"createdAt": null,
	"updatedAt": null
}, {
	"favorite": [],
	"id": 19,
	"uid": "19",
	"filename": "019_fenaux_2014",
	"annotated": false,
	"DisplayName": "Fenaux 2014",
	"ShortCitation": "Fenaux P et al. Annals Oncol. 2014;25(Suppl_3):iii57-iii69.",
	"Title": "__PLACEHOLDER__",
	"active": true,
	"cached": false,
	"tags": [],
	"subtags": [],
	"createdAt": null,
	"updatedAt": null
}, {
	"favorite": [],
	"id": 20,
	"uid": "20",
	"filename": "020_fink_2015",
	"annotated": false,
	"DisplayName": "Fink 2015",
	"ShortCitation": "Fink E, Ebert B. Blood. 2015;126:2366-2369.",
	"Title": "__PLACEHOLDER__",
	"active": true,
	"cached": false,
	"tags": [],
	"subtags": [],
	"createdAt": null,
	"updatedAt": null
}, {
	"favorite": [],
	"id": 21,
	"uid": "21",
	"filename": "021_gangat_2016",
	"annotated": false,
	"DisplayName": "Gangat 2016",
	"ShortCitation": "Gangat N et al. Am J Hematol. 2016;91:76-89.",
	"Title": "__PLACEHOLDER__",
	"active": true,
	"cached": false,
	"tags": [],
	"subtags": [],
	"createdAt": null,
	"updatedAt": null
}, {
	"favorite": [],
	"id": 23,
	"uid": "23",
	"filename": "023_garciamanero_2016",
	"annotated": false,
	"DisplayName": "Garcia-Manero ASH 2016 abstract",
	"ShortCitation": "Garcia-Manero G, et al. Blood. 2016;128(22):abstract 114",
	"Title": "__PLACEHOLDER__",
	"active": true,
	"cached": false,
	"tags": [],
	"subtags": [],
	"createdAt": null,
	"updatedAt": null
}, {
	"favorite": [],
	"id": 24,
	"uid": "24",
	"filename": "024_garciamanero_2019",
	"annotated": false,
	"DisplayName": "Garcia-Manero ASH 2019 abstract",
	"ShortCitation": "Garcia-Manero G, et al. Blood. 2019;134(Suppl_1):abstract 846.",
	"Title": "__PLACEHOLDER__",
	"active": true,
	"cached": false,
	"tags": [],
	"subtags": [],
	"createdAt": null,
	"updatedAt": null
}, {
	"favorite": [],
	"id": 25,
	"uid": "25",
	"filename": "025_garciamanero_2020",
	"annotated": false,
	"DisplayName": "Garcia-Manero 2020",
	"ShortCitation": "Garcia-Manero G et al. Blood. 2020;136:674-683.",
	"Title": "__PLACEHOLDER__",
	"active": true,
	"cached": false,
	"tags": [],
	"subtags": [],
	"createdAt": null,
	"updatedAt": null
}, {
	"favorite": [],
	"id": 26,
	"uid": "26",
	"filename": "026_greenberg_2012",
	"annotated": false,
	"DisplayName": "Greenberg 2012",
	"ShortCitation": "Greenberg P et al. Blood. 2012;120:2454-2465.",
	"Title": "__PLACEHOLDER__",
	"active": true,
	"cached": false,
	"tags": [],
	"subtags": [],
	"createdAt": null,
	"updatedAt": null
}, {
	"favorite": [],
	"id": 27,
	"uid": "27",
	"filename": "027_hong_2017",
	"annotated": false,
	"DisplayName": "Hong 2017",
	"ShortCitation": "Hong M, He G. J Transl Int Med. 2017;5:139-143.",
	"Title": "__PLACEHOLDER__",
	"active": true,
	"cached": false,
	"tags": [],
	"subtags": [],
	"createdAt": null,
	"updatedAt": null
}, {
	"favorite": [],
	"id": 28,
	"uid": "28",
	"filename": "028_inqovi_2020",
	"annotated": false,
	"DisplayName": "Inqovi PI 2020",
	"ShortCitation": "Inqovi Prescribing Information. Otsuka Pharmaceutical Co., Ltd. July 2020",
	"Title": "__PLACEHOLDER__",
	"active": true,
	"cached": false,
	"tags": [],
	"subtags": [],
	"createdAt": null,
	"updatedAt": null
}, {
	"favorite": [],
	"id": 29,
	"uid": "29",
	"filename": "029_itzykson_2017",
	"annotated": false,
	"DisplayName": "Itzykson 2017",
	"ShortCitation": "Itzykson R. Int J Hematol. 2017;105:711-719.",
	"Title": "__PLACEHOLDER__",
	"active": true,
	"cached": false,
	"tags": [],
	"subtags": [],
	"createdAt": null,
	"updatedAt": null
}, {
	"favorite": [],
	"id": 30,
	"uid": "30",
	"filename": "030_leuklymphsoc_2020",
	"annotated": false,
	"DisplayName": "Leuk Lymphoma Soc MDS Guide 2020",
	"ShortCitation": "Leukemia and Lymphoma Society. The MDS Guide: Information for Patients and Caregivers. 2020.",
	"Title": "__PLACEHOLDER__",
	"active": true,
	"cached": false,
	"tags": [],
	"subtags": [],
	"createdAt": null,
	"updatedAt": null
}, {
	"favorite": [],
	"id": 31,
	"uid": "31",
	"filename": "031_leukaemiacare_2020",
	"annotated": false,
	"DisplayName": "Leukaemia Care CMML Guide 2020",
	"ShortCitation": "Leukaemia Care. CMML Guide for Patients. June 2020.",
	"Title": "__PLACEHOLDER__",
	"active": true,
	"cached": false,
	"tags": [],
	"subtags": [],
	"createdAt": null,
	"updatedAt": null
}, {
	"favorite": [],
	"id": 32,
	"uid": "32",
	"filename": "032_leveque_2014",
	"annotated": false,
	"DisplayName": "Leveque 2014",
	"ShortCitation": "Leveque D. Anticancer Res. 2014;34:1579-1586.",
	"Title": "__PLACEHOLDER__",
	"active": true,
	"cached": false,
	"tags": [],
	"subtags": [],
	"createdAt": null,
	"updatedAt": null
}, {
	"favorite": [],
	"id": 34,
	"uid": "34",
	"filename": "034_malcovati_2011",
	"annotated": false,
	"DisplayName": "Malcovati 2011",
	"ShortCitation": "Malcovati L. Haematologica. 2011;96:1433-1440.",
	"Title": "__PLACEHOLDER__",
	"active": true,
	"cached": false,
	"tags": [],
	"subtags": [],
	"createdAt": null,
	"updatedAt": null
}, {
	"favorite": [],
	"id": 35,
	"uid": "35",
	"filename": "035_malcovati_2005",
	"annotated": false,
	"DisplayName": "Malcovati ASH 2005 abstract",
	"ShortCitation": "Malcovati L. Blood. 2005;106(11): abstract 788.",
	"Title": "__PLACEHOLDER__",
	"active": true,
	"cached": false,
	"tags": [],
	"subtags": [],
	"createdAt": null,
	"updatedAt": null
}, {
	"favorite": [],
	"id": 36,
	"uid": "36",
	"filename": "036_nccn_2019",
	"annotated": false,
	"DisplayName": "NCCN AML v3.2020",
	"ShortCitation": "National Comprehensive Cancer Network Guidelines: Acute Myeloid Leukemia. Version 3.2020.",
	"Title": "__PLACEHOLDER__",
	"active": true,
	"cached": false,
	"tags": [],
	"subtags": [],
	"createdAt": null,
	"updatedAt": null
}, {
	"favorite": [],
	"id": 37,
	"uid": "37",
	"filename": "037_nccn_2020",
	"annotated": false,
	"DisplayName": "NCCN MDS v2.2020",
	"ShortCitation": "National Comprehensive Cancer Network Guidelines: Myelodysplastic Syndromes. Version 2.2020.",
	"Title": "__PLACEHOLDER__",
	"active": true,
	"cached": false,
	"tags": [],
	"subtags": [],
	"createdAt": null,
	"updatedAt": null
}, {
	"favorite": [],
	"id": 38,
	"uid": "38",
	"filename": "038_nccn_2018",
	"annotated": false,
	"DisplayName": "NCCN for Patients MDS 2018",
	"ShortCitation": "National Comprehensive Cancer Network Guidelines for Patients: Myelodysplastic Syndromes. 2018.",
	"Title": "__PLACEHOLDER__",
	"active": true,
	"cached": false,
	"tags": [],
	"subtags": [],
	"createdAt": null,
	"updatedAt": null
}, {
	"favorite": [],
	"id": 39,
	"uid": "39",
	"filename": "039_nord_2020",
	"annotated": false,
	"DisplayName": "NORD MDS 2020",
	"ShortCitation": "National Organization for Rare Disorders webpage: Myelodysplastic Syndromes. Accessed 29 June 2020.",
	"Title": "__PLACEHOLDER__",
	"active": true,
	"cached": false,
	"tags": [],
	"subtags": [],
	"createdAt": null,
	"updatedAt": null
}, {
	"favorite": [],
	"id": 40,
	"uid": "40",
	"filename": "040_ogawa_2019",
	"annotated": false,
	"DisplayName": "Ogawa 2019",
	"ShortCitation": "Ogawa S. Blood. 2019;133:1049-1059.",
	"Title": "__PLACEHOLDER__",
	"active": true,
	"cached": false,
	"tags": [],
	"subtags": [],
	"createdAt": null,
	"updatedAt": null
}, {
	"favorite": [],
	"id": 41,
	"uid": "41",
	"filename": "041_ogstontuck_2014",
	"annotated": false,
	"DisplayName": "Ogstontuck 2014",
	"ShortCitation": "Ogston-Tuck S. Nursing Standard. 2014;29:53-58.",
	"Title": "__PLACEHOLDER__",
	"active": true,
	"cached": false,
	"tags": [],
	"subtags": [],
	"createdAt": null,
	"updatedAt": null
}, {
	"favorite": [],
	"id": 43,
	"uid": "43",
	"filename": "043_pfeifer_2018",
	"annotated": false,
	"DisplayName": "Pfeifer 2018",
	"ShortCitation": "Pfeifer G. Int J Mol Sci. 2018;19:1166.",
	"Title": "__PLACEHOLDER__",
	"active": true,
	"cached": false,
	"tags": [],
	"subtags": [],
	"createdAt": null,
	"updatedAt": null
}, {
	"favorite": [],
	"id": 44,
	"uid": "44",
	"filename": "044_platzbecker_2019",
	"annotated": false,
	"DisplayName": "Platzbecker 2019",
	"ShortCitation": "Platzbecker U. Blood. 2019;133:1096-1107.",
	"Title": "__PLACEHOLDER__",
	"active": true,
	"cached": false,
	"tags": [],
	"subtags": [],
	"createdAt": null,
	"updatedAt": null
}, {
	"favorite": [],
	"id": 45,
	"uid": "45",
	"filename": "045_raza_2020",
	"annotated": false,
	"DisplayName": "Raza 2020",
	"ShortCitation": "Raza A, et al. Leuk Res Rep. 2020;13:100201.",
	"Title": "__PLACEHOLDER__",
	"active": true,
	"cached": false,
	"tags": [],
	"subtags": [],
	"createdAt": null,
	"updatedAt": null
}, {
	"favorite": [],
	"id": 46,
	"uid": "46",
	"filename": "046_reblozyl_2020",
	"annotated": false,
	"DisplayName": "Reblozyl CHMP opinion 2020",
	"ShortCitation": "Reblozyl European Medicines Agency CHMP summary opinion. Published 30 April 2020.",
	"Title": "__PLACEHOLDER__",
	"active": true,
	"cached": false,
	"tags": [],
	"subtags": [],
	"createdAt": null,
	"updatedAt": null
}, {
	"favorite": [],
	"id": 47,
	"uid": "47",
	"filename": "047_reblozyl_2020",
	"annotated": false,
	"DisplayName": "Reblozyl PI 2020",
	"ShortCitation": "Reblozyl Prescribing Information. Celgene Corporation. April 2020.",
	"Title": "__PLACEHOLDER__",
	"active": true,
	"cached": false,
	"tags": [],
	"subtags": [],
	"createdAt": null,
	"updatedAt": null
}, {
	"favorite": [],
	"id": 48,
	"uid": "48",
	"filename": "048_revlimid_2019",
	"annotated": false,
	"DisplayName": "Revlimid PI 2019",
	"ShortCitation": "Revlimid Prescribing Information. Celgene Corporation. October 2019.",
	"Title": "__PLACEHOLDER__",
	"active": true,
	"cached": false,
	"tags": [],
	"subtags": [],
	"createdAt": null,
	"updatedAt": null
}, {
	"favorite": [],
	"id": 49,
	"uid": "49",
	"filename": "049_savona_2019",
	"annotated": false,
	"DisplayName": "Savona 2019",
	"ShortCitation": "Savona M, et al. Lancet Hematol. 2019;6:e194-203.",
	"Title": "__PLACEHOLDER__",
	"active": true,
	"cached": false,
	"tags": [],
	"subtags": [],
	"createdAt": null,
	"updatedAt": null
}, {
	"favorite": [],
	"id": 50,
	"uid": "50",
	"filename": "050_schoofs_2014",
	"annotated": false,
	"DisplayName": "Schoofs 2014",
	"ShortCitation": "Schoofs T, et al. Leukemia. 2014;28:1-14.",
	"Title": "__PLACEHOLDER__",
	"active": true,
	"cached": false,
	"tags": [],
	"subtags": [],
	"createdAt": null,
	"updatedAt": null
}, {
	"favorite": [],
	"id": 51,
	"uid": "51",
	"filename": "051_schzanz_2012",
	"annotated": false,
	"DisplayName": "Schzanz 2012",
	"ShortCitation": "Schanz J, et al. J Clin Oncol. 2012;30:820-829.",
	"Title": "__PLACEHOLDER__",
	"active": true,
	"cached": false,
	"tags": [],
	"subtags": [],
	"createdAt": null,
	"updatedAt": null
}, {
	"favorite": [],
	"id": 52,
	"uid": "52",
	"filename": "052_SEER_AML_2020",
	"annotated": false,
	"DisplayName": "SEER AML 2020",
	"ShortCitation": "National Cancer Institute webpage: SEER Cancer Stat Facts: AML https://seer.cancer.gov/statfacts/html/amyl.html. Accessed 29 June 2020.",
	"Title": "__PLACEHOLDER__",
	"active": true,
	"cached": false,
	"tags": [],
	"subtags": [],
	"createdAt": null,
	"updatedAt": null
}, {
	"favorite": [],
	"id": 53,
	"uid": "53",
	"filename": "053_SEER_MDS_2020",
	"annotated": false,
	"DisplayName": "SEER MDS 2020",
	"ShortCitation": "Howlander N, et al. SEER Cancer Statistics Review, 1975-2017. https://seer.cancer.gov/csr/1975_2017/results_merged/sect_30_mds.pdf. Released April 2020.",
	"Title": "__PLACEHOLDER__",
	"active": true,
	"cached": false,
	"tags": [],
	"subtags": [],
	"createdAt": null,
	"updatedAt": null
}, {
	"favorite": [],
	"id": 54,
	"uid": "54",
	"filename": "054_shastri_2017",
	"annotated": false,
	"DisplayName": "Shastri 2017",
	"ShortCitation": "Shastri A, et al. Blood. 2017;129:1586-1594.",
	"Title": "__PLACEHOLDER__",
	"active": true,
	"cached": false,
	"tags": [],
	"subtags": [],
	"createdAt": null,
	"updatedAt": null
}, {
	"favorite": [],
	"id": 55,
	"uid": "55",
	"filename": "055_steensma_2015",
	"annotated": false,
	"DisplayName": "Steensma 2015",
	"ShortCitation": "Steensma D, et al. Blood. 2015;125:1849-1851.",
	"Title": "__PLACEHOLDER__",
	"active": true,
	"cached": false,
	"tags": [],
	"subtags": [],
	"createdAt": null,
	"updatedAt": null
}, {
	"favorite": [],
	"id": 56,
	"uid": "56",
	"filename": "056_steensma_2018",
	"annotated": false,
	"DisplayName": "Steensma 2018",
	"ShortCitation": "Steensma D, et al. Blood Cancer J. 2018;8:47.",
	"Title": "__PLACEHOLDER__",
	"active": true,
	"cached": false,
	"tags": [],
	"subtags": [],
	"createdAt": null,
	"updatedAt": null
}, {
	"favorite": [],
	"id": 57,
	"uid": "57",
	"filename": "057_steensma_2014",
	"annotated": false,
	"DisplayName": "Steensma 2014",
	"ShortCitation": "Steensma D, et al. Cancer. 2014;120:1670-1676.",
	"Title": "__PLACEHOLDER__",
	"active": true,
	"cached": false,
	"tags": [],
	"subtags": [],
	"createdAt": null,
	"updatedAt": null
}, {
	"favorite": [],
	"id": 59,
	"uid": "59",
	"filename": "059_steensma_2016",
	"annotated": false,
	"DisplayName": "Steensma 2016",
	"ShortCitation": "Steensma D. Leuk Lymphoma. 2016;57:17-20.",
	"Title": "__PLACEHOLDER__",
	"active": true,
	"cached": false,
	"tags": [],
	"subtags": [],
	"createdAt": null,
	"updatedAt": null
}, {
	"favorite": [],
	"id": 60,
	"uid": "60",
	"filename": "060_toma_2012",
	"annotated": false,
	"DisplayName": "Toma 2012",
	"ShortCitation": "Toma A, et al. Haematologica. 2012;97:1459-1470.",
	"Title": "__PLACEHOLDER__",
	"active": true,
	"cached": false,
	"tags": [],
	"subtags": [],
	"createdAt": null,
	"updatedAt": null
}, {
	"favorite": [],
	"id": 61,
	"uid": "61",
	"filename": "061_UpToDate_2020",
	"annotated": false,
	"DisplayName": "UpToDate 2020",
	"ShortCitation": "Aster J and Stone R. https://www.uptodate.com/contents/clinical-manifestations-and-diagnosis-of-myelodysplastic-syndromes-mds. Updated 28 May 2020.",
	"Title": "__PLACEHOLDER__",
	"active": true,
	"cached": false,
	"tags": [],
	"subtags": [],
	"createdAt": null,
	"updatedAt": null
}, {
	"favorite": [],
	"id": 63,
	"uid": "63",
	"filename": "063_UpToDate_2020",
	"annotated": false,
	"DisplayName": "UpToDate 2020",
	"ShortCitation": "Estey E and Sekeres M. https://www.uptodate.com/contents/overview-of-the-treatment-of-myelodysplastic-syndromes. Updated 8 May 2020.",
	"Title": "__PLACEHOLDER__",
	"active": true,
	"cached": false,
	"tags": [],
	"subtags": [],
	"createdAt": null,
	"updatedAt": null
}, {
	"favorite": [],
	"id": 64,
	"uid": "64",
	"filename": "064_vardiman_2009",
	"annotated": false,
	"DisplayName": "Vardiman 2009",
	"ShortCitation": "Vardiman J, et al. Blood. 2009;114:937-951.",
	"Title": "__PLACEHOLDER__",
	"active": true,
	"cached": false,
	"tags": [],
	"subtags": [],
	"createdAt": null,
	"updatedAt": null
}, {
	"favorite": [],
	"id": 65,
	"uid": "65",
	"filename": "065_vardiman_2012",
	"annotated": false,
	"DisplayName": "Vardiman 2012",
	"ShortCitation": "Vardiman J. Leuk Res. 2012;36:1453-1458.",
	"Title": "__PLACEHOLDER__",
	"active": true,
	"cached": false,
	"tags": [],
	"subtags": [],
	"createdAt": null,
	"updatedAt": null
}, {
	"favorite": [],
	"id": 67,
	"uid": "67",
	"filename": "067_vidaza_2020",
	"annotated": false,
	"DisplayName": "Vidaza PI 2020",
	"ShortCitation": "Vidaza Prescribing Information. Celgene Corporation. March 2020.",
	"Title": "__PLACEHOLDER__",
	"active": true,
	"cached": false,
	"tags": [],
	"subtags": [],
	"createdAt": null,
	"updatedAt": null
}, {
	"favorite": [],
	"id": 68,
	"uid": "68",
	"filename": "068_vidaza",
	"annotated": false,
	"DisplayName": "Vidaza SmPC 2020",
	"ShortCitation": "Vidaza Summary of Product Characteristics. Celgene Corporation. Accessed 29 June 2020.",
	"Title": "__PLACEHOLDER__",
	"active": true,
	"cached": false,
	"tags": [],
	"subtags": [],
	"createdAt": null,
	"updatedAt": null
}, {
	"favorite": [],
	"id": 69,
	"uid": "69",
	"filename": "069_visconte_2014",
	"annotated": false,
	"DisplayName": "Visconte 2014",
	"ShortCitation": "Visconte V, et al. Blood Res. 2014;49:216-227.",
	"Title": "__PLACEHOLDER__",
	"active": true,
	"cached": false,
	"tags": [],
	"subtags": [],
	"createdAt": null,
	"updatedAt": null
}, {
	"favorite": [],
	"id": 71,
	"uid": "71",
	"filename": "071_weiskopf_2016",
	"annotated": false,
	"DisplayName": "Weiskopf 2016",
	"ShortCitation": "Weiskopf K, et al. Microbiol Spectrum. 2016;4:18.",
	"Title": "__PLACEHOLDER__",
	"active": true,
	"cached": false,
	"tags": [],
	"subtags": [],
	"createdAt": null,
	"updatedAt": null
}, {
	"favorite": [],
	"id": 72,
	"uid": "72",
	"filename": "072_zeidan_2019",
	"annotated": false,
	"DisplayName": "Zeidan 2019",
	"ShortCitation": "Zeidan A, et al. Blood Rev. 2019;34:1-15.",
	"Title": "__PLACEHOLDER__",
	"active": true,
	"cached": false,
	"tags": [],
	"subtags": [],
	"createdAt": null,
	"updatedAt": null
}, {
	"favorite": [],
	"id": 73,
	"uid": "73",
	"filename": "073_bazinet_2019",
	"annotated": true,
	"DisplayName": "Bazinet 2019",
	"ShortCitation": "Bazinet A, Popradi G. Curr Oncol. 2019;26:187-191.",
	"title": "__PLACEHOLDER__",
	"active": true,
	"cached": false,
	"tags": [],
	"subtags": [],
	"createdAt": null,
	"updatedAt": null
}, {
	"favorite": [],
	"id": 74,
	"uid": "74",
	"filename": "074_bhatia_2011",
	"annotated": true,
	"DisplayName": "Bhatia 2011",
	"ShortCitation": "Bhatia S. Expert Rev Hematol. 2011;4:437-454.",
	"title": "__PLACEHOLDER__",
	"active": true,
	"cached": false,
	"tags": [],
	"subtags": [],
	"createdAt": null,
	"updatedAt": null
}, {
	"favorite": [],
	"id": 75,
	"uid": "75",
	"filename": "075_buckley_2017",
	"annotated": true,
	"DisplayName": "Buckley 2017",
	"ShortCitation": "Buckley SA, et al. Haematologica. 2017;102:865-873.",
	"title": "__PLACEHOLDER__",
	"active": true,
	"cached": false,
	"tags": [],
	"subtags": [],
	"createdAt": null,
	"updatedAt": null
}, {
	"favorite": [],
	"id": 76,
	"uid": "76",
	"filename": "076_cibmtr_2018",
	"annotated": true,
	"DisplayName": "CIBMTR 2018",
	"ShortCitation": "Center for International Blood and Marrow Transplant Research: Transplant Activity Report Covering 2013-2017. Table 4. As of 12/12/2018.",
	"title": "__PLACEHOLDER__",
	"active": true,
	"cached": false,
	"tags": [],
	"subtags": [],
	"createdAt": null,
	"updatedAt": null
}, {
	"favorite": [],
	"id": 77,
	"uid": "77",
	"filename": "077_dix_2020",
	"annotated": true,
	"DisplayName": "Dix 2020",
	"ShortCitation": "Dix X, et al. J Clin Med. 2020;9:1714.",
	"title": "__PLACEHOLDER__",
	"active": true,
	"cached": false,
	"tags": [],
	"subtags": [],
	"createdAt": null,
	"updatedAt": null
}, {
	"favorite": [],
	"id": 78,
	"uid": "78",
	"filename": "078_dsouza_2019",
	"annotated": true,
	"DisplayName": "D'Souza 2019",
	"ShortCitation": "D'Souza A, Fretham C. Current Uses and Outcomes of Hematopoietic Cell Transplantation (HCT): CIBMTR Summary Slides, 2019. Available at https://www.cibmtr.org.",
	"title": "__PLACEHOLDER__",
	"active": true,
	"cached": false,
	"tags": [],
	"subtags": [],
	"createdAt": null,
	"updatedAt": null
}, {
	"favorite": [],
	"id": 79,
	"uid": "79",
	"filename": "079_eyrich_2019",
	"annotated": true,
	"DisplayName": "Eyrich 2019",
	"ShortCitation": "Eyrich M, Schulze H. Transfus Med Hemother. 2019;46:348-354.",
	"title": "__PLACEHOLDER__",
	"active": true,
	"cached": false,
	"tags": [],
	"subtags": [],
	"createdAt": null,
	"updatedAt": null
}, {
	"favorite": [],
	"id": 80,
	"uid": "80",
	"filename": "080_furst_2019",
	"annotated": true,
	"DisplayName": "Furst 2019",
	"ShortCitation": "Furst D, et al. Transfus Med Hemother. 2019;46:326-336.",
	"title": "__PLACEHOLDER__",
	"active": true,
	"cached": false,
	"tags": [],
	"subtags": [],
	"createdAt": null,
	"updatedAt": null
}, {
	"favorite": [],
	"id": 81,
	"uid": "81",
	"filename": "081_kunacheewa_2020",
	"annotated": true,
	"DisplayName": "Kunacheewa 2020",
	"ShortCitation": "Kunacheewa C, et al. Cell Transplant. 2020;29:963689720904965.",
	"title": "__PLACEHOLDER__",
	"active": true,
	"cached": false,
	"tags": [],
	"subtags": [],
	"createdAt": null,
	"updatedAt": null
}, {
	"favorite": [],
	"id": 82,
	"uid": "82",
	"filename": "082_lee_2016",
	"annotated": true,
	"DisplayName": "Lee 2016",
	"ShortCitation": "Lee, Y-H, Rah W-J. Blood Res. 2016;51:152-154.",
	"title": "__PLACEHOLDER__",
	"active": true,
	"cached": false,
	"tags": [],
	"subtags": [],
	"createdAt": null,
	"updatedAt": null
}, {
	"favorite": [],
	"id": 83,
	"uid": "83",
	"filename": "083_medinger_2016",
	"annotated": true,
	"DisplayName": "Medinger 2016",
	"ShortCitation": "Medinger M, et al. Leuk Res Rep. 2016;6:39-49.",
	"title": "__PLACEHOLDER__",
	"active": true,
	"cached": false,
	"tags": [],
	"subtags": [],
	"createdAt": null,
	"updatedAt": null
}, {
	"favorite": [],
	"id": 84,
	"uid": "84",
	"filename": "084_najima_2011",
	"annotated": true,
	"DisplayName": "Najima 2011",
	"ShortCitation": "Najima Y, et al. Am J Hematol. 2011;86:508-510.",
	"title": "__PLACEHOLDER__",
	"active": true,
	"cached": false,
	"tags": [],
	"subtags": [],
	"createdAt": null,
	"updatedAt": null
}, {
	"favorite": [],
	"id": 85,
	"uid": "85",
	"filename": "085_nccn-hct_2020",
	"annotated": true,
	"DisplayName": "NCCN HCT v2.2020",
	"ShortCitation": "National Comprehensive Cancer Network Guidelines: Hematopoietic Cell Transplantation. Version 2.2020. ",
	"title": "__PLACEHOLDER__",
	"active": true,
	"cached": false,
	"tags": [],
	"subtags": [],
	"createdAt": null,
	"updatedAt": null
}, {
	"favorite": [],
	"id": 86,
	"uid": "86",
	"filename": "086_pagliuca_2019",
	"annotated": true,
	"DisplayName": "Pagliuca 2019",
	"ShortCitation": "Pagliuca S, et al. Blood Adv. 2019;3:2424–2435.",
	"title": "__PLACEHOLDER__",
	"active": true,
	"cached": false,
	"tags": [],
	"subtags": [],
	"createdAt": null,
	"updatedAt": null
}, {
	"favorite": [],
	"id": 87,
	"uid": "87",
	"filename": "087_schoemans_2018",
	"annotated": true,
	"DisplayName": "Schoemans 2018",
	"ShortCitation": "Schoemans HM, et al. Bone Marrow Transplant. 2018;53:1401-1415.",
	"title": "__PLACEHOLDER__",
	"active": true,
	"cached": false,
	"tags": [],
	"subtags": [],
	"createdAt": null,
	"updatedAt": null
}, {
	"favorite": [],
	"id": 88,
	"uid": "88",
	"filename": "088_schuurhuis_2018",
	"annotated": true,
	"DisplayName": "Schuurhuis 2018",
	"ShortCitation": "Schuurhuis GJ, et al. Blood. 2018;131:1275-1291.",
	"title": "__PLACEHOLDER__",
	"active": true,
	"cached": false,
	"tags": [],
	"subtags": [],
	"createdAt": null,
	"updatedAt": null
}, {
	"favorite": [],
	"id": 89,
	"uid": "89",
	"filename": "089_spitzer_2015",
	"annotated": true,
	"DisplayName": "Spitzer 2015",
	"ShortCitation": "Spitzer TR. Bone Marrow Transplant. 2015;50:469-475.",
	"title": "__PLACEHOLDER__",
	"active": true,
	"cached": false,
	"tags": [],
	"subtags": [],
	"createdAt": null,
	"updatedAt": null
}, {
	"favorite": [],
	"id": 90,
	"uid": "90",
	"filename": "090_tiercy_2016",
	"annotated": true,
	"DisplayName": "Tiercy 2016",
	"ShortCitation": "Tiercy J-M. Haematologica. 2016;101:680-687.",
	"title": "__PLACEHOLDER__",
	"active": true,
	"cached": false,
	"tags": [],
	"subtags": [],
	"createdAt": null,
	"updatedAt": null
}, {
	"favorite": [],
	"id": 91,
	"uid": "91",
	"filename": "091_garciamanero_2020",
	"annotated": false,
	"DisplayName": "Garcia-Manero EHA 2020 oral",
	"ShortCitation": "Garcia-Manero G, et al. EHA 2020 Oral Presentation Abstract S180.",
	"title": "__PLACEHOLDER__",
	"active": true,
	"cached": false,
	"tags": [],
	"subtags": [],
	"createdAt": null,
	"updatedAt": null
}, {
	"favorite": [],
	"id": 92,
	"uid": "92",
	"filename": "092_garciamanero_2011",
	"annotated": false,
	"DisplayName": "Garcia-Manero 2011",
	"ShortCitation": "Garcia-Manero G, et al. J Clin Oncol. 2011;29:2521-2527.",
	"title": "__PLACEHOLDER__",
	"active": true,
	"cached": false,
	"tags": [],
	"subtags": [],
	"createdAt": null,
	"updatedAt": null
}, {
	"favorite": [],
	"id": 93,
	"uid": "93",
	"filename": "093_nccn-mds_2021",
	"annotated": false,
	"DisplayName": "NCCN MDS v1.2021",
	"ShortCitation": "National Comprehensive Cancer Network Guidelines: Myelodysplastic Syndromes. Version 1.2021.",
	"title": "__PLACEHOLDER__",
	"active": true,
	"cached": false,
	"tags": [],
	"subtags": [],
	"createdAt": null,
	"updatedAt": null
}, {
	"favorite": [],
	"id": 94,
	"uid": "94",
	"filename": "094_onureg_2020",
	"annotated": false,
	"DisplayName": "Onureg PI 2020",
	"ShortCitation": "Onureg Prescribing Information. Celgene Corporation. September 2020.",
	"title": "__PLACEHOLDER__",
	"active": true,
	"cached": false,
	"tags": [],
	"subtags": [],
	"createdAt": null,
	"updatedAt": null
}, {
	"favorite": [],
	"id": 95,
	"uid": "95",
	"filename": "095_roboz_2020",
	"annotated": false,
	"DisplayName": "Roboz 2020",
	"ShortCitation": "Roboz GI. J Clin Oncol. 2020;38(suppl):7533-7533.",
	"title": "__PLACEHOLDER__",
	"active": true,
	"cached": false,
	"tags": [],
	"subtags": [],
	"createdAt": null,
	"updatedAt": null
}, {
	"favorite": [],
	"id": 96,
	"uid": "96",
	"filename": "096_wei_2020",
	"annotated": false,
	"DisplayName": "Wei 2020",
	"ShortCitation": "Wei AH. Blood. 2019;134(suppl):LBA-3",
	"title": "__PLACEHOLDER__",
	"active": true,
	"cached": false,
	"tags": [],
	"subtags": [],
	"createdAt": null,
	"updatedAt": null
}]